[
	{
		"comp_id" : 2,
		"id_companytier" : 2,
		"id_geography" : 1,
		"id_companystatus" : 1,
		"id_companytype" : 1,
		"id_kam" : "228",
		"id_dealer" : "3772",
		"Company" : "Mergence Investment Managers (Pty) Ltd",
		"drm_status" : 3,
		"company_rating" : "Gold",
		"Address" : "6th Floor, The Equinox, cnr Milton & main Road, Sea Point, 8005",
		"Switchboard" : null,
		"website" : "http://www.mergence.co.za",
		"social_fb" : null,
		"social_twitter" : null,
		"social_linkedin" : null,
		"modified_date" : "2017-08-30 08:26:27"
	},
	{
		"comp_id" : 4,
		"id_companytier" : 9,
		"id_geography" : 2,
		"id_companystatus" : 1,
		"id_companytype" : 1,
		"id_kam" : "1466",
		"id_dealer" : "",
		"Company" : "Baring Asset Management",
		"drm_status" : 3,
		"company_rating" : "Bronze",
		"Address" : null,
		"Switchboard" : null,
		"website" : "http://www.barings.com/",
		"social_fb" : null,
		"social_twitter" : null,
		"social_linkedin" : null,
		"modified_date" : "2017-07-27 09:09:49"
	},
	{
		"comp_id" : 5,
		"id_companytier" : 4,
		"id_geography" : 2,
		"id_companystatus" : 2,
		"id_companytype" : 1,
		"id_kam" : "",
		"id_dealer" : "",
		"Company" : "Colonial First State Global Asset Management",
		"drm_status" : 1,
		"company_rating" : "Not Assigned",
		"Address" : null,
		"Switchboard" : null,
		"website" : null,
		"social_fb" : null,
		"social_twitter" : null,
		"social_linkedin" : null,
		"modified_date" : "2016-01-20 09:40:35"
	},
	{
		"comp_id" : 6,
		"id_companytier" : 1,
		"id_geography" : 1,
		"id_companystatus" : 1,
		"id_companytype" : 1,
		"id_kam" : "1581",
		"id_dealer" : "3772",
		"Company" : "Coronation Asset Management (Pty) Ltd",
		"drm_status" : 1,
		"company_rating" : "Platinum",
		"Address" : "7th Floor MontClare Place, Cnr Campground and Main Roads, Claremonth, 7735",
		"Switchboard" : "0216802000",
		"website" : "http://www.coronation.com",
		"social_fb" : null,
		"social_twitter" : null,
		"social_linkedin" : "https://www.linkedin.com/company/coronation-fund-managers",
		"modified_date" : "2017-08-31 16:14:34"
	},
	{
		"comp_id" : 7,
		"id_companytier" : 2,
		"id_geography" : 2,
		"id_companystatus" : 1,
		"id_companytype" : 1,
		"id_kam" : "1466 | 2314",
		"id_dealer" : "",
		"Company" : "DWS Investment GmbH",
		"drm_status" : 3,
		"company_rating" : "Gold",
		"Address" : "Mainzer LandstraÃŸe 11-17, 60329 Frankfurt am Main, Germany",
		"Switchboard" : null,
		"website" : "https://www.dws.de/Home",
		"social_fb" : null,
		"social_twitter" : "https://twitter.com/dws_investments",
		"social_linkedin" : null,
		"modified_date" : "2017-09-04 07:56:34"
	},
	{
		"comp_id" : 8,
		"id_companytier" : 4,
		"id_geography" : 1,
		"id_companystatus" : 1,
		"id_companytype" : 6,
		"id_kam" : "",
		"id_dealer" : "",
		"Company" : "FCM Services",
		"drm_status" : 3,
		"company_rating" : "Not Assigned",
		"Address" : null,
		"Switchboard" : null,
		"website" : null,
		"social_fb" : null,
		"social_twitter" : null,
		"social_linkedin" : null,
		"modified_date" : null
	},
	{
		"comp_id" : 9,
		"id_companytier" : 2,
		"id_geography" : 2,
		"id_companystatus" : 1,
		"id_companytype" : 1,
		"id_kam" : "1466",
		"id_dealer" : "",
		"Company" : "Fidelity Worldwide Investment (FIL)",
		"drm_status" : 3,
		"company_rating" : "Gold",
		"Address" : null,
		"Switchboard" : null,
		"website" : "https://www.fidelityinternational.com/global/default.page",
		"social_fb" : null,
		"social_twitter" : null,
		"social_linkedin" : null,
		"modified_date" : "2017-09-04 07:56:39"
	},
	{
		"comp_id" : 10,
		"id_companytier" : 1,
		"id_geography" : 2,
		"id_companystatus" : 1,
		"id_companytype" : 1,
		"id_kam" : "1466",
		"id_dealer" : "3772 | 3837",
		"Company" : "Genesis Investment Management, LLP",
		"drm_status" : 3,
		"company_rating" : "Platinum",
		"Address" : "21 Grosvenor Place, London SW1X 7HU, UK",
		"Switchboard" : null,
		"website" : "https://www.giml.co.uk/",
		"social_fb" : null,
		"social_twitter" : null,
		"social_linkedin" : null,
		"modified_date" : "2017-09-04 07:54:45"
	},
	{
		"comp_id" : 11,
		"id_companytier" : 1,
		"id_geography" : 2,
		"id_companystatus" : 1,
		"id_companytype" : 1,
		"id_kam" : "1466",
		"id_dealer" : "",
		"Company" : "Invesco Asset Management Ltd",
		"drm_status" : 3,
		"company_rating" : "Platinum",
		"Address" : null,
		"Switchboard" : null,
		"website" : "https://www.invescoperpetual.co.uk",
		"social_fb" : null,
		"social_twitter" : null,
		"social_linkedin" : null,
		"modified_date" : "2017-09-04 07:54:51"
	},
	{
		"comp_id" : 12,
		"id_companytier" : 1,
		"id_geography" : 1,
		"id_companystatus" : 1,
		"id_companytype" : 1,
		"id_kam" : "",
		"id_dealer" : "5105",
		"Company" : "Investec Asset Management Ltd",
		"drm_status" : 1,
		"company_rating" : "Platinum",
		"Address" : "36 Hans Strijdom Avenue, Foreshore, 8001",
		"Switchboard" : null,
		"website" : "http://www.investecassetmanagement.com",
		"social_fb" : null,
		"social_twitter" : null,
		"social_linkedin" : null,
		"modified_date" : "2017-08-31 16:13:32"
	}
]
