<?xml version="1.0" standalone="no"?>
<!DOCTYPE svg PUBLIC "-//W3C//DTD SVG 20010904//EN"
 "http://www.w3.org/TR/2001/REC-SVG-20010904/DTD/svg10.dtd">
<svg version="1.0" xmlns="http://www.w3.org/2000/svg"
 width="124.000000pt" height="124.000000pt" viewBox="0 0 124.000000 124.000000"
 preserveAspectRatio="xMidYMid meet">
<metadata>
Created by potrace 1.11, written by Peter Selinger 2001-2013
</metadata>
<g transform="translate(0.000000,124.000000) scale(0.100000,-0.100000)"
fill="#000000" stroke="none">
<path d="M119 1213 c-57 -30 -92 -71 -109 -132 -15 -53 -13 -869 2 -929 15
-62 78 -125 140 -140 32 -8 183 -12 481 -12 l433 0 55 28 c57 29 92 70 109
131 15 53 13 869 -2 929 -15 62 -78 125 -140 140 -32 8 -183 12 -481 12 l-433
0 -55 -27z m481 -250 l-1 -148 -72 -86 c-40 -47 -96 -115 -126 -150 l-54 -64
59 60 c32 33 106 112 164 174 58 63 131 142 162 175 l57 61 1 -130 0 -131
-185 -108 c-267 -157 -239 -150 61 15 150 82 299 159 309 159 3 0 5 -67 5
-150 0 -82 -4 -150 -9 -150 -5 0 -149 -16 -321 -35 -298 -33 -380 -40 -380
-31 0 9 41 98 150 326 62 129 125 263 141 298 15 34 31 62 34 62 3 0 5 -66 5
-147z m-216 -639 c9 -3 16 -13 16 -22 0 -12 -3 -13 -12 -4 -31 31 -78 0 -78
-52 0 -49 20 -70 58 -63 39 8 43 -10 5 -19 -77 -20 -123 86 -63 146 20 20 45
25 74 14z m147 -4 c10 -6 19 -15 19 -21 0 -6 -7 -6 -19 1 -45 23 -81 -1 -81
-55 0 -54 36 -78 81 -55 12 7 19 7 19 1 0 -6 -9 -15 -19 -21 -55 -29 -101 6
-101 75 0 68 48 103 101 75z m130 0 c22 -13 25 -52 5 -70 -13 -10 -12 -16 5
-43 21 -35 24 -47 10 -47 -5 0 -18 16 -30 35 -11 19 -27 35 -36 35 -11 0 -15
-10 -15 -35 0 -19 -4 -35 -10 -35 -6 0 -10 35 -10 85 l0 85 31 0 c17 0 39 -5
50 -10z m127 -60 l26 -65 30 68 c21 47 35 67 48 67 16 0 18 -10 18 -86 0 -64
-3 -85 -12 -81 -7 2 -14 21 -15 43 -1 21 -2 48 -3 59 -1 12 -13 -4 -30 -42
-16 -35 -33 -63 -38 -63 -6 0 -20 29 -33 65 -12 35 -26 62 -31 59 -4 -3 -8
-32 -8 -65 0 -33 -4 -59 -10 -59 -6 0 -10 35 -10 86 0 81 1 85 21 82 16 -2 28
-20 47 -68z"/>
<path d="M600 280 c0 -23 5 -30 19 -30 28 0 47 26 31 45 -7 8 -21 15 -31 15
-14 0 -19 -7 -19 -30z"/>
</g>
</svg>
